                                                                                                                                                                                                                                                                
                        1                        2                        3
                   M_star                   R_star                   L_star
  0.2028984000000000E+034  0.2609172935114441E+012  0.2355756645740434E+035
                        1                        2                        3                        4                        5                        6                        7
                        l                      n_p                      n_g                 Re(freq)                 Im(freq)                   E_norm                        W
                        0                        3                        0  0.7555453327093431E+002  0.0000000000000000E+000  0.4192357258979397E-003  0.0000000000000000E+000
                        0                        4                        0  0.9667561794205534E+002  0.0000000000000000E+000  0.8225154851180535E-004  0.0000000000000000E+000
                        0                        5                        0  0.1170250100408337E+003  0.0000000000000000E+000  0.1757424513229507E-004  0.0000000000000000E+000
                        0                        6                        0  0.1356965852679564E+003  0.0000000000000000E+000  0.4854936594119007E-005  0.0000000000000000E+000
                        0                        7                        0  0.1539254704956110E+003  0.0000000000000000E+000  0.2054436145384397E-005  0.0000000000000000E+000
                        0                        8                        0  0.1724120788387119E+003  0.0000000000000000E+000  0.9829754639816902E-006  0.0000000000000000E+000
                        0                        9                        0  0.1903076084997987E+003  0.0000000000000000E+000  0.5652328381318268E-006  0.0000000000000000E+000
                        0                       10                        0  0.2084367040565139E+003  0.0000000000000000E+000  0.4221717344524544E-006  0.0000000000000000E+000
                        0                       11                        0  0.2270011459690141E+003  0.0000000000000000E+000  0.3348428821857201E-006  0.0000000000000000E+000
                        0                       12                        0  0.2455149058030505E+003  0.0000000000000000E+000  0.2793388508133464E-006  0.0000000000000000E+000
                        0                       13                        0  0.2641517952300778E+003  0.0000000000000000E+000  0.2562997227707930E-006  0.0000000000000000E+000
                        0                       14                        0  0.2830191668437433E+003  0.0000000000000000E+000  0.2442322738284287E-006  0.0000000000000000E+000
                        0                       15                        0  0.3019538575070056E+003  0.0000000000000000E+000  0.2356578898392330E-006  0.0000000000000000E+000
                        0                       16                        0  0.3209177531963062E+003  0.0000000000000000E+000  0.2329409091320374E-006  0.0000000000000000E+000
                        0                       17                        0  0.3398943686984510E+003  0.0000000000000000E+000  0.2344701979631404E-006  0.0000000000000000E+000
                        0                       18                        0  0.3587295448284216E+003  0.0000000000000000E+000  0.2415772297503212E-006  0.0000000000000000E+000
